{
  "log": {
    "version": "1.2",
    "creator": {
      "name": "WebInspector",
      "version": "537.36"
    },
    "pages": [
      {
        "startedDateTime": "2022-10-28T20:46:18.713Z",
        "id": "page_1",
        "title": "https://reqres.in/",
        "pageTimings": {
          "onContentLoad": 270.30599990393966,
          "onLoad": 2579.676999943331
        }
      }
    ],
    "entries": [
      {
        "_fromCache": "disk",
        "_initiator": {
          "type": "script",
          "stack": {
            "callFrames": [
              {
                "functionName": "",
                "scriptId": "41",
                "url": "https://reqres.in/js/app.js",
                "lineNumber": 219,
                "columnNumber": 10
              }
            ]
          }
        },
        "_priority": "High",
        "_resourceType": "xhr",
        "cache": {},
        "pageref": "page_1",
        "request": {
          "method": "GET",
          "url": "https://reqres.in/api/users?page=2",
          "httpVersion": "http/2.0",
          "headers": [],
          "queryString": [
            {
              "name": "page",
              "value": "2"
            }
          ],
          "cookies": [
            {
              "name": "__stripe_mid",
              "value": "438b3237-90dc-4541-88b8-085f58553741960342",
              "path": "/",
              "domain": ".reqres.in",
              "expires": "2023-10-28T20:46:19.000Z",
              "httpOnly": false,
              "secure": true,
              "sameSite": "Strict"
            }
          ],
          "headersSize": -1,
          "bodySize": 0
        },
        "response": {
          "status": 200,
          "statusText": "",
          "httpVersion": "http/2.0",
          "headers": [
            {
              "name": "access-control-allow-origin",
              "value": "*"
            },
            {
              "name": "cache-control",
              "value": "max-age=14400"
            },
            {
              "name": "cf-cache-status",
              "value": "REVALIDATED"
            },
            {
              "name": "cf-ray",
              "value": "76168310d9fcabdb-CPH"
            },
            {
              "name": "content-encoding",
              "value": "br"
            },
            {
              "name": "content-type",
              "value": "application/json; charset=utf-8"
            },
            {
              "name": "date",
              "value": "Fri, 28 Oct 2022 20:44:53 GMT"
            },
            {
              "name": "etag",
              "value": "W/\"406-ut0vzoCuidvyMf8arZpMpJ6ZRDw\""
            },
            {
              "name": "nel",
              "value": "{\"success_fraction\":0,\"report_to\":\"cf-nel\",\"max_age\":604800}"
            },
            {
              "name": "report-to",
              "value": "{\"endpoints\":[{\"url\":\"https:\\/\\/a.nel.cloudflare.com\\/report\\/v3?s=ZZqSKtMHFgQQzdoCTiW3SlXrdBGndsqCWpy%2BWH8G7TqRgPGkDiqIRHpgY25Yy6u0ASDcBxgz4pB8hEy7u%2BDUwN%2FbA4XRBs%2FnKk4fHFs12i2%2BCoxqbIU1kaoK1g%3D%3D\"}],\"group\":\"cf-nel\",\"max_age\":604800}"
            },
            {
              "name": "server",
              "value": "cloudflare"
            },
            {
              "name": "vary",
              "value": "Accept-Encoding"
            },
            {
              "name": "via",
              "value": "1.1 vegur"
            },
            {
              "name": "x-powered-by",
              "value": "Express"
            }
          ],
          "cookies": [],
          "content": {
            "size": 1030,
            "mimeType": "application/json",
            "text": "{\"page\":2,\"per_page\":6,\"total\":12,\"total_pages\":2,\"data\":[{\"id\":7,\"email\":\"michael.lawson@reqres.in\",\"first_name\":\"Michael\",\"last_name\":\"Lawson\",\"avatar\":\"https://reqres.in/img/faces/7-image.jpg\"},{\"id\":8,\"email\":\"lindsay.ferguson@reqres.in\",\"first_name\":\"Lindsay\",\"last_name\":\"Ferguson\",\"avatar\":\"https://reqres.in/img/faces/8-image.jpg\"},{\"id\":9,\"email\":\"tobias.funke@reqres.in\",\"first_name\":\"Tobias\",\"last_name\":\"Funke\",\"avatar\":\"https://reqres.in/img/faces/9-image.jpg\"},{\"id\":10,\"email\":\"byron.fields@reqres.in\",\"first_name\":\"Byron\",\"last_name\":\"Fields\",\"avatar\":\"https://reqres.in/img/faces/10-image.jpg\"},{\"id\":11,\"email\":\"george.edwards@reqres.in\",\"first_name\":\"George\",\"last_name\":\"Edwards\",\"avatar\":\"https://reqres.in/img/faces/11-image.jpg\"},{\"id\":12,\"email\":\"rachel.howell@reqres.in\",\"first_name\":\"Rachel\",\"last_name\":\"Howell\",\"avatar\":\"https://reqres.in/img/faces/12-image.jpg\"}],\"support\":{\"url\":\"https://reqres.in/#support-heading\",\"text\":\"To keep ReqRes free, contributions towards server costs are appreciated!\"}}"
          },
          "redirectURL": "",
          "headersSize": -1,
          "bodySize": 0,
          "_transferSize": 0,
          "_error": null
        },
        "serverIPAddress": "104.26.10.213",
        "startedDateTime": "2022-10-28T21:31:31.631Z",
        "time": 5.999000044539571,
        "timings": {
          "blocked": 3.709999999076128,
          "dns": -1,
          "ssl": -1,
          "connect": -1,
          "send": 0,
          "wait": 1.9569999621734022,
          "receive": 0.3320000832900405,
          "_blocked_queueing": 3.607999999076128
        }
      },
      {
        "_initiator": {
          "type": "script",
          "stack": {
            "callFrames": [
              {
                "functionName": "",
                "scriptId": "41",
                "url": "https://reqres.in/js/app.js",
                "lineNumber": 219,
                "columnNumber": 10
              }
            ]
          }
        },
        "_priority": "High",
        "_resourceType": "xhr",
        "cache": {},
        "connection": "3065724",
        "pageref": "page_1",
        "request": {
          "method": "POST",
          "url": "https://reqres.in/api/users",
          "httpVersion": "http/2.0",
          "headers": [
            {
              "name": ":authority",
              "value": "reqres.in"
            },
            {
              "name": ":method",
              "value": "POST"
            },
            {
              "name": ":path",
              "value": "/api/users"
            },
            {
              "name": ":scheme",
              "value": "https"
            },
            {
              "name": "accept",
              "value": "*/*"
            },
            {
              "name": "accept-encoding",
              "value": "gzip, deflate, br"
            },
            {
              "name": "accept-language",
              "value": "sv,en;q=0.9"
            },
            {
              "name": "content-length",
              "value": "34"
            },
            {
              "name": "content-type",
              "value": "application/json"
            },
            {
              "name": "cookie",
              "value": "__stripe_mid=438b3237-90dc-4541-88b8-085f58553741960342"
            },
            {
              "name": "origin",
              "value": "https://reqres.in"
            },
            {
              "name": "referer",
              "value": "https://reqres.in/"
            },
            {
              "name": "sec-ch-ua",
              "value": "\"Chromium\";v=\"106\", \"Google Chrome\";v=\"106\", \"Not;A=Brand\";v=\"99\""
            },
            {
              "name": "sec-ch-ua-mobile",
              "value": "?0"
            },
            {
              "name": "sec-ch-ua-platform",
              "value": "\"macOS\""
            },
            {
              "name": "sec-fetch-dest",
              "value": "empty"
            },
            {
              "name": "sec-fetch-mode",
              "value": "cors"
            },
            {
              "name": "sec-fetch-site",
              "value": "same-origin"
            },
            {
              "name": "user-agent",
              "value": "Mozilla/5.0 (Macintosh; Intel Mac OS X 10_15_7) AppleWebKit/537.36 (KHTML, like Gecko) Chrome/106.0.0.0 Safari/537.36"
            }
          ],
          "queryString": [],
          "cookies": [
            {
              "name": "__stripe_mid",
              "value": "438b3237-90dc-4541-88b8-085f58553741960342",
              "path": "/",
              "domain": ".reqres.in",
              "expires": "2023-10-28T20:46:19.000Z",
              "httpOnly": false,
              "secure": true,
              "sameSite": "Strict"
            }
          ],
          "headersSize": -1,
          "bodySize": 34,
          "postData": {
            "mimeType": "application/json",
            "text": "{\"name\":\"morpheus\",\"job\":\"leader\"}"
          }
        },
        "response": {
          "status": 201,
          "statusText": "",
          "httpVersion": "http/2.0",
          "headers": [
            {
              "name": "access-control-allow-origin",
              "value": "*"
            },
            {
              "name": "cf-cache-status",
              "value": "DYNAMIC"
            },
            {
              "name": "cf-ray",
              "value": "7616c77b0b85d879-CPH"
            },
            {
              "name": "content-length",
              "value": "84"
            },
            {
              "name": "content-type",
              "value": "application/json; charset=utf-8"
            },
            {
              "name": "date",
              "value": "Fri, 28 Oct 2022 21:31:35 GMT"
            },
            {
              "name": "etag",
              "value": "W/\"54-jwiHTUgNzSXI0AakU1IwgvfMwjs\""
            },
            {
              "name": "nel",
              "value": "{\"success_fraction\":0,\"report_to\":\"cf-nel\",\"max_age\":604800}"
            },
            {
              "name": "report-to",
              "value": "{\"endpoints\":[{\"url\":\"https:\\/\\/a.nel.cloudflare.com\\/report\\/v3?s=EIHhKYTOmJWhbmSchOOkhMx9X7UXP9PJAHAwcHPRaQNKHf226hQ7bqcxx4lCJjQpqbe10Kc3d6IZTiTbT11lltbPaCm1uZAhWbxyoeaeGEQwEXiVzZoORoT5Ww%3D%3D\"}],\"group\":\"cf-nel\",\"max_age\":604800}"
            },
            {
              "name": "server",
              "value": "cloudflare"
            },
            {
              "name": "via",
              "value": "1.1 vegur"
            },
            {
              "name": "x-powered-by",
              "value": "Express"
            }
          ],
          "cookies": [],
          "content": {
            "size": 84,
            "mimeType": "application/json",
            "text": "{\"name\":\"morpheus\",\"job\":\"leader\",\"id\":\"659\",\"createdAt\":\"2022-10-28T21:31:35.582Z\"}"
          },
          "redirectURL": "",
          "headersSize": -1,
          "bodySize": -1,
          "_transferSize": 546,
          "_error": null
        },
        "serverIPAddress": "172.67.73.173",
        "startedDateTime": "2022-10-28T21:31:36.025Z",
        "time": 150.84700000383705,
        "timings": {
          "blocked": 1.5910000230073928,
          "dns": 12.102,
          "ssl": 24.26,
          "connect": 49.541,
          "send": 0.29699999999999704,
          "wait": 86.93099995963276,
          "receive": 0.3850000211969018,
          "_blocked_queueing": 1.3790000230073929
        }
      },
      {
        "_initiator": {
          "type": "script",
          "stack": {
            "callFrames": [
              {
                "functionName": "",
                "scriptId": "41",
                "url": "https://reqres.in/js/app.js",
                "lineNumber": 219,
                "columnNumber": 10
              }
            ]
          }
        },
        "_priority": "High",
        "_resourceType": "xhr",
        "cache": {},
        "connection": "3065724",
        "pageref": "page_1",
        "request": {
          "method": "PATCH",
          "url": "https://reqres.in/api/users/2",
          "httpVersion": "http/2.0",
          "headers": [
            {
              "name": ":authority",
              "value": "reqres.in"
            },
            {
              "name": ":method",
              "value": "PATCH"
            },
            {
              "name": ":path",
              "value": "/api/users/2"
            },
            {
              "name": ":scheme",
              "value": "https"
            },
            {
              "name": "accept",
              "value": "*/*"
            },
            {
              "name": "accept-encoding",
              "value": "gzip, deflate, br"
            },
            {
              "name": "accept-language",
              "value": "sv,en;q=0.9"
            },
            {
              "name": "content-length",
              "value": "41"
            },
            {
              "name": "content-type",
              "value": "application/json"
            },
            {
              "name": "cookie",
              "value": "__stripe_mid=438b3237-90dc-4541-88b8-085f58553741960342"
            },
            {
              "name": "origin",
              "value": "https://reqres.in"
            },
            {
              "name": "referer",
              "value": "https://reqres.in/"
            },
            {
              "name": "sec-ch-ua",
              "value": "\"Chromium\";v=\"106\", \"Google Chrome\";v=\"106\", \"Not;A=Brand\";v=\"99\""
            },
            {
              "name": "sec-ch-ua-mobile",
              "value": "?0"
            },
            {
              "name": "sec-ch-ua-platform",
              "value": "\"macOS\""
            },
            {
              "name": "sec-fetch-dest",
              "value": "empty"
            },
            {
              "name": "sec-fetch-mode",
              "value": "cors"
            },
            {
              "name": "sec-fetch-site",
              "value": "same-origin"
            },
            {
              "name": "user-agent",
              "value": "Mozilla/5.0 (Macintosh; Intel Mac OS X 10_15_7) AppleWebKit/537.36 (KHTML, like Gecko) Chrome/106.0.0.0 Safari/537.36"
            }
          ],
          "queryString": [],
          "cookies": [
            {
              "name": "__stripe_mid",
              "value": "438b3237-90dc-4541-88b8-085f58553741960342",
              "path": "/",
              "domain": ".reqres.in",
              "expires": "2023-10-28T20:46:19.000Z",
              "httpOnly": false,
              "secure": true,
              "sameSite": "Strict"
            }
          ],
          "headersSize": -1,
          "bodySize": 41,
          "postData": {
            "mimeType": "application/json",
            "text": "{\"name\":\"morpheus\",\"job\":\"zion resident\"}"
          }
        },
        "response": {
          "status": 200,
          "statusText": "",
          "httpVersion": "http/2.0",
          "headers": [
            {
              "name": "access-control-allow-origin",
              "value": "*"
            },
            {
              "name": "cf-cache-status",
              "value": "DYNAMIC"
            },
            {
              "name": "cf-ray",
              "value": "7616c7900982d879-CPH"
            },
            {
              "name": "content-encoding",
              "value": "br"
            },
            {
              "name": "content-type",
              "value": "application/json; charset=utf-8"
            },
            {
              "name": "date",
              "value": "Fri, 28 Oct 2022 21:31:38 GMT"
            },
            {
              "name": "etag",
              "value": "W/\"50-b03qA84kPs14FIij1hPTmtJlLek\""
            },
            {
              "name": "nel",
              "value": "{\"success_fraction\":0,\"report_to\":\"cf-nel\",\"max_age\":604800}"
            },
            {
              "name": "report-to",
              "value": "{\"endpoints\":[{\"url\":\"https:\\/\\/a.nel.cloudflare.com\\/report\\/v3?s=iBR2nKrYv1WkNs1ofz5rnSf06Z6ZOllTOzObfc7Fgg%2B82oa8lylwdsdhU4%2FUbiChZEmRZzznlVTn1KZ6VZ3eSwAXB7ZQ30gK%2BUmlekc4YDQGlbcVf8so%2BrzFow%3D%3D\"}],\"group\":\"cf-nel\",\"max_age\":604800}"
            },
            {
              "name": "server",
              "value": "cloudflare"
            },
            {
              "name": "via",
              "value": "1.1 vegur"
            },
            {
              "name": "x-powered-by",
              "value": "Express"
            }
          ],
          "cookies": [],
          "content": {
            "size": 80,
            "mimeType": "application/json",
            "text": "{\"name\":\"morpheus\",\"job\":\"zion resident\",\"updatedAt\":\"2022-10-28T21:31:38.936Z\"}"
          },
          "redirectURL": "",
          "headersSize": -1,
          "bodySize": -1,
          "_transferSize": 394,
          "_error": null
        },
        "serverIPAddress": "172.67.73.173",
        "startedDateTime": "2022-10-28T21:31:39.432Z",
        "time": 84.95899999979883,
        "timings": {
          "blocked": 1.5020000241845846,
          "dns": -1,
          "ssl": -1,
          "connect": -1,
          "send": 0.21800000000000003,
          "wait": 82.60700005269796,
          "receive": 0.6319999229162931,
          "_blocked_queueing": 1.3180000241845846
        }
      },
      {
        "_initiator": {
          "type": "script",
          "stack": {
            "callFrames": [
              {
                "functionName": "",
                "scriptId": "41",
                "url": "https://reqres.in/js/app.js",
                "lineNumber": 219,
                "columnNumber": 10
              }
            ]
          }
        },
        "_priority": "High",
        "_resourceType": "xhr",
        "cache": {},
        "connection": "3065724",
        "pageref": "page_1",
        "request": {
          "method": "DELETE",
          "url": "https://reqres.in/api/users/2",
          "httpVersion": "http/2.0",
          "headers": [
            {
              "name": ":authority",
              "value": "reqres.in"
            },
            {
              "name": ":method",
              "value": "DELETE"
            },
            {
              "name": ":path",
              "value": "/api/users/2"
            },
            {
              "name": ":scheme",
              "value": "https"
            },
            {
              "name": "accept",
              "value": "*/*"
            },
            {
              "name": "accept-encoding",
              "value": "gzip, deflate, br"
            },
            {
              "name": "accept-language",
              "value": "sv,en;q=0.9"
            },
            {
              "name": "content-type",
              "value": "application/json"
            },
            {
              "name": "cookie",
              "value": "__stripe_mid=438b3237-90dc-4541-88b8-085f58553741960342"
            },
            {
              "name": "origin",
              "value": "https://reqres.in"
            },
            {
              "name": "referer",
              "value": "https://reqres.in/"
            },
            {
              "name": "sec-ch-ua",
              "value": "\"Chromium\";v=\"106\", \"Google Chrome\";v=\"106\", \"Not;A=Brand\";v=\"99\""
            },
            {
              "name": "sec-ch-ua-mobile",
              "value": "?0"
            },
            {
              "name": "sec-ch-ua-platform",
              "value": "\"macOS\""
            },
            {
              "name": "sec-fetch-dest",
              "value": "empty"
            },
            {
              "name": "sec-fetch-mode",
              "value": "cors"
            },
            {
              "name": "sec-fetch-site",
              "value": "same-origin"
            },
            {
              "name": "user-agent",
              "value": "Mozilla/5.0 (Macintosh; Intel Mac OS X 10_15_7) AppleWebKit/537.36 (KHTML, like Gecko) Chrome/106.0.0.0 Safari/537.36"
            }
          ],
          "queryString": [],
          "cookies": [
            {
              "name": "__stripe_mid",
              "value": "438b3237-90dc-4541-88b8-085f58553741960342",
              "path": "/",
              "domain": ".reqres.in",
              "expires": "2023-10-28T20:46:19.000Z",
              "httpOnly": false,
              "secure": true,
              "sameSite": "Strict"
            }
          ],
          "headersSize": -1,
          "bodySize": 0
        },
        "response": {
          "status": 204,
          "statusText": "",
          "httpVersion": "http/2.0",
          "headers": [
            {
              "name": "access-control-allow-origin",
              "value": "*"
            },
            {
              "name": "cf-cache-status",
              "value": "DYNAMIC"
            },
            {
              "name": "cf-ray",
              "value": "7616c79b5a48d879-CPH"
            },
            {
              "name": "content-length",
              "value": "0"
            },
            {
              "name": "date",
              "value": "Fri, 28 Oct 2022 21:31:40 GMT"
            },
            {
              "name": "etag",
              "value": "W/\"2-vyGp6PvFo4RvsFtPoIWeCReyIC8\""
            },
            {
              "name": "nel",
              "value": "{\"success_fraction\":0,\"report_to\":\"cf-nel\",\"max_age\":604800}"
            },
            {
              "name": "report-to",
              "value": "{\"endpoints\":[{\"url\":\"https:\\/\\/a.nel.cloudflare.com\\/report\\/v3?s=IL9M2ukz6gZC2daoNEGDmR4xo62NVEZlH%2BDJc1NGmSuu4Xw6QxjIdrW8a%2FW1JFm1JKkvRMi1oDpWyLH%2FLQVTdaLjHkuiXG2VIXX1iu64ER4%2FIWKqDNsuv2DVCw%3D%3D\"}],\"group\":\"cf-nel\",\"max_age\":604800}"
            },
            {
              "name": "server",
              "value": "cloudflare"
            },
            {
              "name": "via",
              "value": "1.1 vegur"
            },
            {
              "name": "x-powered-by",
              "value": "Express"
            }
          ],
          "cookies": [],
          "content": {
            "size": 0,
            "mimeType": "text/plain",
            "text": ""
          },
          "redirectURL": "",
          "headersSize": -1,
          "bodySize": -1,
          "_transferSize": 300,
          "_error": null
        },
        "serverIPAddress": "172.67.73.173",
        "startedDateTime": "2022-10-28T21:31:41.240Z",
        "time": 92.01700007542968,
        "timings": {
          "blocked": 2.6200000661090015,
          "dns": -1,
          "ssl": -1,
          "connect": -1,
          "send": 0.18500000000000003,
          "wait": 88.37000000075996,
          "receive": 0.8420000085607171,
          "_blocked_queueing": 2.4090000661090016
        }
      }
    ]
  }
}